{
  "shell_port": 60165,
  "iopub_port": 33997,
  "stdin_port": 40271,
  "control_port": 48701,
  "hb_port": 51625,
  "ip": "127.0.0.1",
  "key": "5e70185b-0cae629fbf4ce70d449c4b1e",
  "transport": "tcp",
  "signature_scheme": "hmac-sha256",
  "kernel_name": ""
}